Example_Input_and_Output/VCD_FILE.vcd
$date
	Sun Nov 27 01:33:44 2022
$end
$version
	Icarus Verilog
$end
$timescale
	1ns
$end
$scope module CPU_32bit_pipeline $end
$var wire 1 ! TOP_AND_GATE $end
$var wire 32 " TOP_CONTROL [31:0] $end
$var wire 32 # TOP_DATA [31:0] $end
$var wire 1 $ TOP_INV_GATE $end
$var wire 32 % TOP_OUT_DATA_SEL_1 [31:0] $end
$var wire 32 & TOP_OUT_DATA_SEL_2 [31:0] $end
$var wire 1 ' TOP_READ_OR_GATE $end
$var wire 32 ( TOP_WORD [31:0] $end
$var wire 1 ) TOP_XOR_GATE $end
$var wire 1 * and_gate $end
$var wire 32 + bit_data_sel_1 [31:0] $end
$var wire 32 , bit_data_sel_2 [31:0] $end
$var wire 32 - control [31:0] $end
$var wire 32 . data [31:0] $end
$var wire 1 / inv_gate $end
$var wire 1 0 read_or_gate $end
$var wire 32 1 word [31:0] $end
$var wire 1 2 xor_gate $end
$var reg 1 3 CLK $end
$var reg 32 4 COUNTER [31:0] $end
$scope module dt_pth_1 $end
$var wire 1 5 ALU_EQUAL $end
$var wire 1 6 ALU_GREATER_EQUAL_THAN $end
$var wire 1 7 ALU_LESS_THAN $end
$var wire 1 8 ALU_NOT_EQUAL $end
$var wire 32 9 ALU_RESULT [31:0] $end
$var wire 5 : D_R1 [4:0] $end
$var wire 5 ; D_R2 [4:0] $end
$var wire 5 < E_TRG [4:0] $end
$var wire 5 = M_TRG [4:0] $end
$var wire 32 > PC_INSTRUCTION [31:0] $end
$var wire 32 ? PC_JUMP_DESTINATION [31:0] $end
$var wire 1 @ PC_JUMP_ENABLE $end
$var wire 32 A RAM_READ_DATA [31:0] $end
$var wire 1 B REMEM_AND_GATE $end
$var wire 32 C REMEM_CONTROL [31:0] $end
$var wire 32 D REMEM_DATA [31:0] $end
$var wire 1 E REMEM_INV_GATE $end
$var wire 32 F REMEM_OUT_DATA_SEL_1 [31:0] $end
$var wire 32 G REMEM_OUT_DATA_SEL_2 [31:0] $end
$var wire 1 H REMEM_READ_OR_GATE $end
$var wire 1 I REMEM_STALL $end
$var wire 32 J REMEM_WORD [31:0] $end
$var wire 1 K REMEM_XOR_GATE $end
$var wire 12 L S_imm12 [11:0] $end
$var wire 5 M W_TRG [4:0] $end
$var wire 1 ! and_gate $end
$var wire 32 N bit_data_sel_1 [31:0] $end
$var wire 32 O bit_data_sel_2 [31:0] $end
$var wire 1 P clk $end
$var wire 32 Q control [31:0] $end
$var wire 32 R data [31:0] $end
$var wire 1 $ inv_gate $end
$var wire 1 ' read_or_gate $end
$var wire 32 S reg_data_1 [31:0] $end
$var wire 32 T reg_data_2 [31:0] $end
$var wire 32 U word [31:0] $end
$var wire 1 ) xor_gate $end
$var reg 32 V ALU_A [31:0] $end
$var reg 32 W ALU_B [31:0] $end
$var reg 5 X ALU_CONTROL [4:0] $end
$var reg 7 Y D_OC [6:0] $end
$var reg 32 Z D_PC [31:0] $end
$var reg 32 [ D_RAM_ADDRESS [31:0] $end
$var reg 32 \ E_MEM_ADDRESS [31:0] $end
$var reg 7 ] E_OC [6:0] $end
$var reg 32 ^ E_PC [31:0] $end
$var reg 32 _ E_REG_1 [31:0] $end
$var reg 32 ` E_REG_2 [31:0] $end
$var reg 32 a IR_D [31:0] $end
$var reg 32 b IR_E [31:0] $end
$var reg 32 c IR_M [31:0] $end
$var reg 32 d IR_W [31:0] $end
$var reg 32 e M_ALU_RESULT [31:0] $end
$var reg 32 f M_MEM_ADDRESS [31:0] $end
$var reg 7 g M_OC [6:0] $end
$var reg 32 h M_REG_1 [31:0] $end
$var reg 32 i PC [31:0] $end
$var reg 32 j RAM_ADDRESS [31:0] $end
$var reg 1 k RAM_OR_ALU_DATA_TO_REG_SEL $end
$var reg 1 l RAM_READ_BYTE_ENABLE $end
$var reg 1 m RAM_READ_HALF_WORD_ENABLE $end
$var reg 1 n RAM_WRITE_BYTE_ENABLE $end
$var reg 32 o RAM_WRITE_DATA [31:0] $end
$var reg 1 p RAM_WRITE_ENABLE $end
$var reg 1 q RAM_WRITE_HALF_WORD_ENABLE $end
$var reg 1 r REG_READ_BYTE_ENABLE $end
$var reg 1 s REG_READ_HALF_WORD_ENABLE $end
$var reg 1 t REG_WRITE_BYTE_ENABLE $end
$var reg 1 u REG_WRITE_HALF_WORD_ENABLE $end
$var reg 1 v REMEM_DATA_TO_REG_SEL $end
$var reg 1 w STALL $end
$var reg 8 x STALL_COUNT [7:0] $end
$var reg 8 y STALL_COUNT_MAX [7:0] $end
$var reg 8 z STALL_JUNK_SEL [7:0] $end
$var reg 32 { W_ALU_RESULT [31:0] $end
$var reg 7 | W_OC [6:0] $end
$var reg 32 } W_TO_REG_DATA [31:0] $end
$var reg 5 ~ reg_address_1 [4:0] $end
$var reg 5 !" reg_address_2 [4:0] $end
$var reg 5 "" reg_write_address [4:0] $end
$var reg 32 #" reg_write_data [31:0] $end
$var reg 1 $" reg_write_enable $end
$scope module reg_1 $end
$var wire 1 P clk $end
$var wire 5 %" read_address_1 [4:0] $end
$var wire 5 &" read_address_2 [4:0] $end
$var wire 1 '" read_byte_enable $end
$var wire 1 (" read_half_word_endable $end
$var wire 32 )" reg0 [31:0] $end
$var wire 32 *" reg1 [31:0] $end
$var wire 32 +" reg10 [31:0] $end
$var wire 32 ," reg11 [31:0] $end
$var wire 32 -" reg12 [31:0] $end
$var wire 32 ." reg13 [31:0] $end
$var wire 32 /" reg14 [31:0] $end
$var wire 32 0" reg15 [31:0] $end
$var wire 32 1" reg16 [31:0] $end
$var wire 32 2" reg17 [31:0] $end
$var wire 32 3" reg18 [31:0] $end
$var wire 32 4" reg19 [31:0] $end
$var wire 32 5" reg2 [31:0] $end
$var wire 32 6" reg3 [31:0] $end
$var wire 32 7" reg4 [31:0] $end
$var wire 32 8" reg5 [31:0] $end
$var wire 32 9" reg6 [31:0] $end
$var wire 32 :" reg7 [31:0] $end
$var wire 32 ;" reg8 [31:0] $end
$var wire 32 <" reg9 [31:0] $end
$var wire 5 =" write_address [4:0] $end
$var wire 1 >" write_byte_enable $end
$var wire 32 ?" write_data [31:0] $end
$var wire 1 @" write_enable $end
$var wire 1 A" write_half_word_endable $end
$var integer 32 B" i [31:0] $end
$var reg 32 C" read_data_1 [31:0] $end
$var reg 32 D" read_data_2 [31:0] $end
$upscope $end
$scope module ram_1 $end
$var wire 1 P clk $end
$var wire 32 E" data_address [31:0] $end
$var wire 32 F" pc_address [31:0] $end
$var wire 32 G" pc_read_data [31:0] $end
$var wire 1 H" read_byte_enable $end
$var wire 1 I" read_half_word_endable $end
$var wire 1 J" write_byte_enable $end
$var wire 32 K" write_data [31:0] $end
$var wire 1 L" write_enable $end
$var wire 1 M" write_half_word_endable $end
$var reg 32 N" data_read_data [31:0] $end
$var integer 32 O" i [31:0] $end
$upscope $end
$scope module alu_1 $end
$var wire 5 P" alu_control [4:0] $end
$var wire 1 5 equal $end
$var wire 1 6 greater_equal_than $end
$var wire 32 Q" input_A [31:0] $end
$var wire 32 R" input_B [31:0] $end
$var wire 1 7 less_than $end
$var wire 1 8 not_equal $end
$var wire 1 S" zero $end
$var reg 32 T" result [31:0] $end
$upscope $end
$scope module jump_control_1 $end
$var wire 7 U" e_oc [6:0] $end
$var wire 32 V" e_reg_1 [31:0] $end
$var wire 1 5 equal $end
$var wire 1 6 greater_equal_than $end
$var wire 32 W" imm12 [31:0] $end
$var wire 32 X" imm20 [31:0] $end
$var wire 1 7 less_than $end
$var wire 1 8 not_equal $end
$var wire 32 Y" pc_base [31:0] $end
$var wire 25 Z" pc_offset [24:0] $end
$var reg 1 [" pc_jump $end
$var reg 32 \" pc_jump_destination [31:0] $end
$upscope $end
$scope module mem_con_1 $end
$var wire 1 P clk $end
$var wire 12 ]" imm12_I [11:0] $end
$var wire 12 ^" imm12_S [11:0] $end
$var wire 32 _" in_buffer_data [31:0] $end
$var wire 32 `" in_data [31:0] $end
$var wire 32 a" instruction [31:0] $end
$var wire 3 b" mem_address_RD [2:0] $end
$var wire 3 c" mem_address_RS1 [2:0] $end
$var wire 3 d" mem_address_RS2 [2:0] $end
$var wire 7 e" opcode [6:0] $end
$var reg 1 f" ONE_STEP_GATE_PROC $end
$var reg 1 g" STALL $end
$var reg 1 h" and_gate $end
$var reg 32 i" control [31:0] $end
$var integer 32 j" i [31:0] $end
$var reg 1 k" inv_gate $end
$var reg 32 l" out_data_sel_1 [31:0] $end
$var reg 32 m" out_data_sel_2 [31:0] $end
$var reg 1 n" read_or_gate $end
$var reg 32 o" reg_in_data [31:0] $end
$var reg 32 p" reg_instruction [31:0] $end
$var reg 1 q" return_mem_gate_result_to_mem $end
$var reg 32 r" word [31:0] $end
$var reg 1 s" xor_gate $end
$upscope $end
$scope module vir_mem_1 $end
$var wire 1 B and_gate $end
$var wire 32 t" bit_data_sel_1 [31:0] $end
$var wire 32 u" bit_data_sel_2 [31:0] $end
$var wire 1 P clk $end
$var wire 32 v" control [31:0] $end
$var wire 1 E inv_gate $end
$var wire 1 H read_or_gate $end
$var wire 32 w" word [31:0] $end
$var wire 32 x" wr0 [31:0] $end
$var wire 32 y" wr1 [31:0] $end
$var wire 32 z" wr2 [31:0] $end
$var wire 32 {" wr3 [31:0] $end
$var wire 32 |" wr4 [31:0] $end
$var wire 32 }" wr5 [31:0] $end
$var wire 32 ~" wr6 [31:0] $end
$var wire 32 !# wr7 [31:0] $end
$var wire 1 K xor_gate $end
$var reg 32 "# data [31:0] $end
$var integer 32 ## i [31:0] $end
$var integer 32 $# j [31:0] $end
$var reg 32 %# word_1 [31:0] $end
$var reg 32 &# word_2 [31:0] $end
$var reg 1 '# wrd_flg $end
$upscope $end
$upscope $end
$upscope $end
$enddefinitions $end
#0
$dumpvars
0'#
b0 &#
b0 %#
bx $#
b11111 ##
b0 "#
b0 !#
b0 ~"
b0 }"
b0 |"
b0 {"
b0 z"
b0 y"
b0 x"
b0 w"
b0 v"
b0 u"
b0 t"
0s"
b0 r"
0q"
bx p"
bx o"
0n"
b0 m"
b0 l"
0k"
bx j"
b0 i"
0h"
0g"
0f"
bx e"
bx d"
bx c"
bx b"
bx a"
bx `"
b0 _"
bx ^"
bx ]"
b0 \"
0["
bx Z"
b0 Y"
bx X"
bx W"
bx V"
bx U"
b0 T"
1S"
b0 R"
b0 Q"
bx P"
b111110010 O"
bx N"
xM"
xL"
bx K"
xJ"
xI"
xH"
b110000000000000010001010 G"
b0 F"
bx E"
bx D"
bx C"
b11111 B"
xA"
x@"
bx ?"
x>"
bx ="
b0 <"
b0 ;"
b0 :"
b0 9"
b0 8"
b0 7"
b0 6"
b0 5"
b0 4"
b0 3"
b0 2"
b0 1"
b0 0"
b0 /"
b0 ."
b0 -"
b0 ,"
b0 +"
b0 *"
b0 )"
x("
x'"
bx &"
bx %"
x$"
bx #"
bx ""
bx !"
bx ~
bx }
bx |
bx {
b0 z
b0 y
b0 x
0w
xv
xu
xt
xs
xr
xq
xp
bx o
xn
xm
xl
xk
bx j
b0 i
bx h
bx g
bx f
bx e
bx d
bx c
bx b
bx a
bx `
bx _
b0 ^
bx ]
b0 \
b0 [
b11111111111111111111111111111100 Z
bx Y
bx X
b0 W
b0 V
b0 U
bx T
bx S
b0 R
b0 Q
1P
b0 O
b0 N
bx M
bx L
0K
b0 J
0I
0H
b0 G
b0 F
0E
b0 D
b0 C
0B
bx A
0@
b0 ?
b110000000000000010001010 >
bx =
bx <
bx ;
bx :
b0 9
08
07
16
15
b0 4
13
02
b0 1
00
0/
b0 .
b0 -
b0 ,
b0 +
0*
0)
b0 (
0'
b0 &
b0 %
0$
b0 #
b0 "
0!
$end
#25
03
0P
#50
b0 D"
b0 T
b0 C"
b0 S
b0 j
b0 E"
0q
0M"
0n
0J"
0m
0I"
0l
0H"
0k
0p
0L"
b1100 !"
b1100 &"
b0 ~
b0 %"
0u
0A"
0t
0>"
0s
0("
0r
0'"
0$"
0@"
b1010 Y
b0 :
b1100 ;
b1 L
b1 4
b0 f
b0 e
b110000000000000010001010 a
b11111111111111111111111111111100 ^
b11111111111111111111111111111100 Y"
b0 Z
b100 i
b100 F"
b101000000000000100001010 >
b101000000000000100001010 G"
bx N"
13
1P
#75
03
0P
#100
b0 #"
b0 ?"
b0 }
0S"
05
18
06
17
b1100 T"
b1100 9
b110000000000 X"
b1 W"
b1100 W
b1100 R"
b1010 X
b1010 P"
b1010 !"
b1010 &"
b1010 ;
b10 L
b1 <
b11000000000000001 Z"
b1010 ]
b1010 U"
b110000000000000010001010 N"
b110000000000000010001010 A
b0 ^
b0 Y"
b100 Z
b1000 i
b1000 F"
b1000000010110011 >
b1000000010110011 G"
b101000000000000100001010 a
b110000000000000010001010 b
b110000000000000010001010 a"
b0 `
b0 _
b0 V"
b0 `"
b0 {
b10 4
13
1P
#125
03
0P
#150
b10 y
1w
b101000000000 X"
b10 W"
b1010 T"
b1010 9
b1 b"
b0 c"
b100 d"
b0 o
b0 K"
b1 =
b0 !"
b0 &"
b1 ~
b1 %"
b1 :
b0 ;
b1 L
b10 <
b10100000000000010 Z"
b1010 g
b110011 Y
b1010 W
b1010 R"
b1010 e"
b1100 ]"
b1 ^"
b11 4
b0 h
b1100 e
b110000000000000010001010 c
b1000000010110011 a
b101000000000000100001010 b
b101000000000000100001010 a"
b100 ^
b100 Y"
b1000 Z
b1100 i
b1100 F"
b10000000000110011 >
b10000000000110011 G"
b0 o"
b110000000000000010001010 p"
b110000000000000010001010 N"
13
1P
#175
03
0P
#200
b1100 #"
b1100 ?"
b1100 }
b10 b"
b10 d"
0v
b1010 ]"
b10 ^"
1$"
1@"
b1 ""
b1 ="
b1 M
b1010 |
b10 =
b11 y
1w
b110000000000000010001010 N"
b101000000000000100001010 p"
b110000000000000010001010 d
b101000000000000100001010 c
b1010 e
b1100 {
b100 4
b1 x
13
1P
#225
03
0P
#250
b1010 #"
b1010 ?"
b1010 }
b10 ""
b10 ="
1$"
1@"
b10 M
b1100 C"
b1100 S
b0 y
0w
b101 4
b1010 {
b101000000000000100001010 d
b110000000000000010001010 N"
b1100 *"
b10 z
b10 x
13
1P
#275
03
0P
#300
1S"
15
08
b1000 X"
b1 W"
b10011 X
b10011 P"
b0 T"
b0 9
16
07
b1010 C"
b1010 S
b11111 M
b11111 =
b11111 ""
b11111 ="
b10 ~
b10 %"
0$"
0@"
b10 :
b0 L
b1 <
b100000001 Z"
b1111111 |
b1111111 g
b110011 ]
b110011 U"
b0 V
b0 Q"
b0 W
b0 R"
b1010 5"
b110000000000000010001010 N"
b1000 ^
b1000 Y"
b1100 Z
b10000 i
b10000 F"
b1000000010110100 >
b1000000010110100 G"
b11111111111111111111111111111111 d
b11111111111111111111111111111111 c
b10000000000110011 a
b1000000010110011 b
b1000000010110011 a"
b1100 _
b1100 V"
b1100 `"
b110 4
b0 z
b0 x
13
1P
#325
03
0P
#350
b1100 C"
b1100 S
b10000 X"
b0 W"
b1 b"
b1 c"
b0 d"
b10 i"
b10 C
b10 v"
b10 "
b10 Q
b10 -
b1100 o
b1100 K"
b1 =
b1 ~
b1 %"
b1 :
b1 L
b0 <
b1000000000 Z"
b110011 g
b110100 Y
b1100 l"
b1100 F
b1100 t"
b1100 %
b1100 N
b1100 +
b11111 j"
b11111111111111111111111111111111 m"
b11111111111111111111111111111111 G
b11111111111111111111111111111111 u"
b11111111111111111111111111111111 &
b11111111111111111111111111111111 O
b11111111111111111111111111111111 ,
b110011 e"
b0 ]"
b1 ^"
b111 4
b1100 h
b0 e
b1010 _
b1010 V"
b1010 `"
b1000000010110011 c
b1000000010110100 a
b10000000000110011 b
b10000000000110011 a"
b1100 ^
b1100 Y"
b10000 Z
b10100 i
b10100 F"
b100000000000100110101 >
b100000000000100110101 G"
b1100 o"
b1000000010110011 p"
b110000000000000010001010 N"
13
1P
#375
03
0P
#400
b0 #"
b0 ?"
b0 }
b0 b"
b10 c"
b1 i"
b1 C
b1 v"
b1 "
b1 Q
b1 -
b1100 D"
b1100 T
b0 C"
b0 S
b1000 X"
b1 W"
b10100 X
b10100 P"
b11111 j"
b11111111111111111111111111111111 m"
b11111111111111111111111111111111 G
b11111111111111111111111111111111 u"
b11111111111111111111111111111111 &
b11111111111111111111111111111111 O
b11111111111111111111111111111111 ,
b1010 l"
b1010 F
b1010 t"
b1010 %
b1010 N
b1010 +
b0 ^"
b1 M
b0 =
b1 ""
b1 ="
b1 !"
b1 &"
b0 ~
b0 %"
b0 :
b1 ;
b10 L
b1 <
b100000001 Z"
b110011 |
b110100 ]
b110100 U"
b110101 Y
b1010 o
b1010 K"
b110000000000000010001010 N"
b1010 o"
b10000000000110011 p"
b1100 y"
b10000 ^
b10000 Y"
b10100 Z
b11000 i
b11000 F"
b1000000110110110 >
b1000000110110110 G"
b1000000010110011 d
b10000000000110011 c
b100000000000100110101 a
b1000000010110100 b
b1000000010110100 a"
b1100 _
b1100 V"
b1100 `"
b1010 h
b0 {
b1000 4
b11111 $#
b11111 ##
13
1P
#425
03
0P
#450
b1100 &#
0'#
b1010 %#
b1100 C"
b1100 S
b0 D"
b0 T
b100000000 X"
b10 W"
b10101 X
b10101 P"
1n"
1H
1'
10
b11 r"
b11 J
b11 w"
b11 (
b11 U
b11 1
b1 b"
b1 c"
b11 i"
b11 C
b11 v"
b11 "
b11 Q
b11 -
b1100 o
b1100 K"
b0 M
b1 =
b0 ""
b0 ="
b0 !"
b0 &"
b1 ~
b1 %"
b1 :
b0 ;
b11 L
b10 <
b10000000000010 Z"
b110100 g
b110101 ]
b110101 U"
b110110 Y
b0 m"
b0 G
b0 u"
b0 &
b0 O
b0 ,
b0 l"
b0 F
b0 t"
b0 %
b0 N
b0 +
b110100 e"
b1 ^"
b1001 4
b1100 h
b1100 `
b0 _
b0 V"
b0 `"
b10000000000110011 d
b1000000010110100 c
b1000000110110110 a
b100000000000100110101 b
b100000000000100110101 a"
b10100 ^
b10100 Y"
b11000 Z
b11100 i
b11100 F"
b101010 >
b101010 G"
b1010 x"
b1100 o"
b1000000010110100 p"
b110000000000000010001010 N"
b11111 $#
b11111 ##
13
1P
#475
03
0P
#500
b1110 #"
b1110 ?"
b1110 }
0'#
b11111 ##
b1100 &#
b1010 %#
1h"
1B
1!
1*
1n"
1H
1'
10
b11 r"
b11 J
b11 w"
b11 (
b11 U
b11 1
b10 b"
b0 c"
b1 d"
b11 i"
b11 C
b11 v"
b11 "
b11 Q
b11 -
b0 C"
b0 S
b1000 X"
b11 W"
1v
b10110 X
b10110 P"
b110101 e"
b1 ]"
b10 ^"
b1 M
b10 =
1$"
1@"
b1 ""
b1 ="
b0 ~
b0 %"
b0 :
b0 L
b11 <
b100000011 Z"
b110100 |
b110101 g
b110110 ]
b110110 U"
b101010 Y
b0 o
b0 K"
b110000000000000010001010 N"
b0 o"
b100000000000100110101 p"
b1110 "#
b1110 D
b1110 _"
b1110 #
b1110 R
b1110 .
b11000 ^
b11000 Y"
b11100 Z
b100000 i
b100000 F"
b1 >
b1 G"
b1000000010110100 d
b100000000000100110101 c
b101010 a
b1000000110110110 b
b1000000110110110 a"
b0 `
b1100 _
b1100 V"
b1100 `"
b0 h
b1010 4
13
1P
#525
03
0P
#550
0'#
b11111 ##
b1100 &#
b1010 %#
b0 X"
b0 W"
1v
b11100 \"
b11100 ?
1["
1@
b1010 X
b1010 P"
1s"
1K
1)
12
0h"
0B
0!
0*
0n"
0H
0'
00
b11 r"
b11 J
b11 w"
b11 (
b11 U
b11 1
b11 b"
b1 c"
b0 d"
b11 i"
b11 C
b11 v"
b11 "
b11 Q
b11 -
b1100 o
b1100 K"
b10 M
b11 =
b1000 #"
b1000 ?"
b10 ""
b10 ="
1$"
1@"
b0 <
b0 Z"
b110101 |
b110110 g
b101010 ]
b101010 U"
b1 Y
b110110 e"
b0 ]"
b11 ^"
b1000 }
b1011 4
b1100 h
b0 _
b0 V"
b0 `"
b100000000000100110101 d
b1000000110110110 c
b1 a
b101010 b
b101010 a"
b11100 ^
b11100 Y"
b100000 Z
b100100 i
b100100 F"
b10 >
b10 G"
b1100 o"
b1000000110110110 p"
b110000000000000010001010 N"
b1110 *"
b1000 "#
b1000 D
b1000 _"
b1000 #
b1000 R
b1000 .
13
1P
#575
03
0P
#600
b11111 ##
b0 &#
b0 %#
0s"
0K
0)
02
b0 r"
b0 J
b0 w"
b0 (
b0 U
b0 1
b0 b"
b0 c"
b0 i"
b0 C
b0 v"
b0 "
b0 Q
b0 -
b11111111111111111111111111111111 X"
b11111111111111111111111111111111 W"
1v
b11111 X
b11111 P"
bx D"
bx T
bx C"
bx S
b101010 e"
b0 ^"
b0 \"
b0 ?
0["
0@
b11111 <
b1111111111111111111111111 Z"
b11111 :
b11111 ;
b111111111111 L
b11 M
b0 =
b110 #"
b110 ?"
b11 ""
b11 ="
b11111 !"
b11111 &"
b11111 ~
b11111 %"
1$"
1@"
b110110 |
b101010 g
b1111111 ]
b1111111 U"
b1111111 Y
b0 o
b0 K"
b110 }
b1000 5"
b110000000000000010001010 N"
b0 o"
b101010 p"
b0 ^
b0 Y"
b0 Z
b11100 i
b11100 F"
b101010 >
b101010 G"
b1000000110110110 d
b101010 c
b11111111111111111111111111111111 a
b11111111111111111111111111111111 b
b11111111111111111111111111111111 a"
b0 h
b1100 4
b110 "#
b110 D
b110 _"
b110 #
b110 R
b110 .
13
1P
#625
03
0P
#650
0v
b111 b"
b111 c"
b111 d"
b0 M
b11111 =
b0 #"
b0 ?"
b0 ""
b0 ="
b0 !"
b0 &"
b0 ~
b0 %"
0$"
0@"
b101010 |
b1111111 g
b101010 Y
b0 :
b0 ;
b0 L
b1111111 e"
b111111111111 ]"
b111111111111 ^"
b0 D"
b0 T
b0 C"
b0 S
b0 }
b1101 4
bx `
bx _
bx V"
bx `"
b101010 d
b11111111111111111111111111111111 c
b101010 a
b11100 Z
b100000 i
b100000 F"
b1 >
b1 G"
b11111111111111111111111111111111 p"
b110000000000000010001010 N"
b110 6"
b0 "#
b0 D
b0 _"
b0 #
b0 R
b0 .
13
1P
#675
03
0P
#700
b0 X"
b0 W"
b11100 \"
b11100 ?
1["
1@
b1010 X
b1010 P"
b11111 M
b11111 ""
b11111 ="
b0 <
b0 Z"
b1111111 |
b101010 ]
b101010 U"
b1 Y
bx o
bx K"
b110000000000000010001010 N"
bx o"
b11100 ^
b11100 Y"
b100000 Z
b100100 i
b100100 F"
b10 >
b10 G"
b11111111111111111111111111111111 d
b1 a
b101010 b
b101010 a"
b0 `
b0 _
b0 V"
b0 `"
bx h
b1110 4
13
1P
#725
03
0P
#750
b11111111111111111111111111111111 X"
b11111111111111111111111111111111 W"
bx D"
bx T
bx C"
bx S
b11111 X
b11111 P"
b0 b"
b0 c"
b0 d"
b0 o
b0 K"
b11111 <
b1111111111111111111111111 Z"
b11111 :
b11111 ;
b111111111111 L
b0 =
b11111 !"
b11111 &"
b11111 ~
b11111 %"
b101010 g
b1111111 ]
b1111111 U"
b1111111 Y
b0 \"
b0 ?
0["
0@
b101010 e"
b0 ]"
b0 ^"
b1111 4
b0 h
b101010 c
b11111111111111111111111111111111 a
b11111111111111111111111111111111 b
b11111111111111111111111111111111 a"
b0 ^
b0 Y"
b0 Z
b11100 i
b11100 F"
b101010 >
b101010 G"
b0 o"
b101010 p"
b110000000000000010001010 N"
13
1P
#775
03
0P
#800
b111 b"
b111 c"
b111 d"
b0 D"
b0 T
b0 C"
b0 S
b1111111 e"
b111111111111 ]"
b111111111111 ^"
b0 M
b11111 =
b0 ""
b0 ="
b0 !"
b0 &"
b0 ~
b0 %"
b101010 |
b1111111 g
b101010 Y
b0 :
b0 ;
b0 L
b110000000000000010001010 N"
b11111111111111111111111111111111 p"
b11100 Z
b100000 i
b100000 F"
b1 >
b1 G"
b101010 d
b11111111111111111111111111111111 c
b101010 a
bx `
bx _
bx V"
bx `"
b10000 4
13
1P
#825
03
0P
#850
b0 X"
b0 W"
b11100 \"
b11100 ?
1["
1@
b1010 X
b1010 P"
bx o
bx K"
b11111 M
b11111 ""
b11111 ="
b0 <
b0 Z"
b1111111 |
b101010 ]
b101010 U"
b1 Y
b10001 4
bx h
b0 `
b0 _
b0 V"
b0 `"
b11111111111111111111111111111111 d
b1 a
b101010 b
b101010 a"
b11100 ^
b11100 Y"
b100000 Z
b100100 i
b100100 F"
b10 >
b10 G"
bx o"
b110000000000000010001010 N"
13
1P
#875
03
0P
#900
b0 b"
b0 c"
b0 d"
b11111111111111111111111111111111 X"
b11111111111111111111111111111111 W"
bx D"
bx T
bx C"
bx S
b11111 X
b11111 P"
b101010 e"
b0 ]"
b0 ^"
b0 \"
b0 ?
0["
0@
b11111 <
b1111111111111111111111111 Z"
b11111 :
b11111 ;
b111111111111 L
b0 =
b11111 !"
b11111 &"
b11111 ~
b11111 %"
b101010 g
b1111111 ]
b1111111 U"
b1111111 Y
b0 o
b0 K"
b110000000000000010001010 N"
b0 o"
b101010 p"
b0 ^
b0 Y"
b0 Z
b11100 i
b11100 F"
b101010 >
b101010 G"
b101010 c
b11111111111111111111111111111111 a
b11111111111111111111111111111111 b
b11111111111111111111111111111111 a"
b0 h
b10010 4
13
1P
#925
03
0P
#950
b0 D"
b0 T
b0 C"
b0 S
b111 b"
b111 c"
b111 d"
b0 M
b11111 =
b0 ""
b0 ="
b0 !"
b0 &"
b0 ~
b0 %"
b101010 |
b1111111 g
b101010 Y
b0 :
b0 ;
b0 L
b1111111 e"
b111111111111 ]"
b111111111111 ^"
b10011 4
bx `
bx _
bx V"
bx `"
b101010 d
b11111111111111111111111111111111 c
b101010 a
b11100 Z
b100000 i
b100000 F"
b1 >
b1 G"
b11111111111111111111111111111111 p"
b110000000000000010001010 N"
13
1P
#975
03
0P
#1000
b0 X"
b0 W"
b11100 \"
b11100 ?
1["
1@
b1010 X
b1010 P"
b11111 M
b11111 ""
b11111 ="
b0 <
b0 Z"
b1111111 |
b101010 ]
b101010 U"
b1 Y
bx o
bx K"
b110000000000000010001010 N"
bx o"
b11100 ^
b11100 Y"
b100000 Z
b100100 i
b100100 F"
b10 >
b10 G"
b11111111111111111111111111111111 d
b1 a
b101010 b
b101010 a"
b0 `
b0 _
b0 V"
b0 `"
bx h
b10100 4
13
1P
#1025
03
0P
#1050
b11111111111111111111111111111111 X"
b11111111111111111111111111111111 W"
bx D"
bx T
bx C"
bx S
b11111 X
b11111 P"
b0 b"
b0 c"
b0 d"
b0 o
b0 K"
b11111 <
b1111111111111111111111111 Z"
b11111 :
b11111 ;
b111111111111 L
b0 =
b11111 !"
b11111 &"
b11111 ~
b11111 %"
b101010 g
b1111111 ]
b1111111 U"
b1111111 Y
b0 \"
b0 ?
0["
0@
b101010 e"
b0 ]"
b0 ^"
b10101 4
b0 h
b101010 c
b11111111111111111111111111111111 a
b11111111111111111111111111111111 b
b11111111111111111111111111111111 a"
b0 ^
b0 Y"
b0 Z
b11100 i
b11100 F"
b101010 >
b101010 G"
b0 o"
b101010 p"
b110000000000000010001010 N"
13
1P
#1075
03
0P
#1100
b111 b"
b111 c"
b111 d"
b0 D"
b0 T
b0 C"
b0 S
b1111111 e"
b111111111111 ]"
b111111111111 ^"
b0 M
b11111 =
b0 ""
b0 ="
b0 !"
b0 &"
b0 ~
b0 %"
b101010 |
b1111111 g
b101010 Y
b0 :
b0 ;
b0 L
b110000000000000010001010 N"
b11111111111111111111111111111111 p"
b11100 Z
b100000 i
b100000 F"
b1 >
b1 G"
b101010 d
b11111111111111111111111111111111 c
b101010 a
bx `
bx _
bx V"
bx `"
b10110 4
13
1P
#1125
03
0P
#1150
b0 X"
b0 W"
b11100 \"
b11100 ?
1["
1@
b1010 X
b1010 P"
bx o
bx K"
b11111 M
b11111 ""
b11111 ="
b0 <
b0 Z"
b1111111 |
b101010 ]
b101010 U"
b1 Y
b10111 4
bx h
b0 `
b0 _
b0 V"
b0 `"
b11111111111111111111111111111111 d
b1 a
b101010 b
b101010 a"
b11100 ^
b11100 Y"
b100000 Z
b100100 i
b100100 F"
b10 >
b10 G"
bx o"
b110000000000000010001010 N"
13
1P
#1175
03
0P
#1200
b0 b"
b0 c"
b0 d"
b11111111111111111111111111111111 X"
b11111111111111111111111111111111 W"
bx D"
bx T
bx C"
bx S
b11111 X
b11111 P"
b101010 e"
b0 ]"
b0 ^"
b0 \"
b0 ?
0["
0@
b11111 <
b1111111111111111111111111 Z"
b11111 :
b11111 ;
b111111111111 L
b0 =
b11111 !"
b11111 &"
b11111 ~
b11111 %"
b101010 g
b1111111 ]
b1111111 U"
b1111111 Y
b0 o
b0 K"
b110000000000000010001010 N"
b0 o"
b101010 p"
b0 ^
b0 Y"
b0 Z
b11100 i
b11100 F"
b101010 >
b101010 G"
b101010 c
b11111111111111111111111111111111 a
b11111111111111111111111111111111 b
b11111111111111111111111111111111 a"
b0 h
b11000 4
13
1P
#1225
03
0P
#1250
b0 D"
b0 T
b0 C"
b0 S
b111 b"
b111 c"
b111 d"
b0 M
b11111 =
b0 ""
b0 ="
b0 !"
b0 &"
b0 ~
b0 %"
b101010 |
b1111111 g
b101010 Y
b0 :
b0 ;
b0 L
b1111111 e"
b111111111111 ]"
b111111111111 ^"
b11001 4
bx `
bx _
bx V"
bx `"
b101010 d
b11111111111111111111111111111111 c
b101010 a
b11100 Z
b100000 i
b100000 F"
b1 >
b1 G"
b11111111111111111111111111111111 p"
b110000000000000010001010 N"
13
1P
#1275
03
0P
